# lui = integrated luminosity in 1/ub; plu = peak luminosity in Hz/ub; time = UNIX UTC time; file generated Mon, 28 May 2018 18:33:42 UTC
# fill  tstart  tstop  ATLAS_lui  CMS_lui  LHCb_lui  ALICE_lui  ATLAS_plu  CMS_plu  LHCb_plu  ALICE_plu
6380  1510428607  1510464846      89920     105427      12079      5654    3.78    4.94    5.99    1.00
6381  1510471000  1510492817    4394778    4276249    1513571     25045  350.36  335.37  144.87    1.31
6382  1510499751  1510503289    7054215    6879968    2319218     28327  863.59  908.71  255.73    1.06
6384  1510512435  1510550888   28787536   29639433   10573060     67104  887.85  934.21  252.59    1.11
6385  1510559800  1510652523   83478365   86923839   28462498    160228 1247.81 1313.58  714.88    5.25
6386  1510659919  1510701500  118457994  123567125   40791619    202176 1336.91 1401.34  355.00    1.12
6387  1510706920  1510707195  118457994  123673928   40807576    202332    0.21 1384.90  335.05    0.93
6388  1510713909  1510714905  118457994  124848442   41068090    203175    0.21 1307.41  373.28    1.03
6389  1510720520  1510746005  134147198  149077566   48896910    228686 1236.36 1300.72  370.64    1.10
6390  1510758765  1510787449  151835138  175828469   57674055    257737 1228.84 1294.05  364.08    1.11
6392  1510807870  1510840572  172334999  204953057   67574345    290694 1251.23 1316.64  363.77    1.13
6396  1510868833  1511002745  186888580  245897933   84144609    426901  651.29  784.28  299.41    1.12
6397  1511008805  1511118088  228164332  293227683  101472973    538172  838.84  966.81  267.64    1.12
6398  1511124347  1511171461  250716881  320329510  111102274    727154  876.98  944.46  267.61    5.38
6399  1511179552  1511244168  278813115  348082642  122820909   1515866  534.08  904.61  262.93   13.16
