{ 
    "logfile"            : "/data/logs/updateLumi2024.log",
    "year"               : "2024",
    "startDate"          : "2024-04-04",
    "endDate"            : "2024-11-26",
    "firstFill"          : "9470",
    "lastFill"           : "12000",
    "firstFillIon"       : "10329",
    "lastFillIon"        : "12000",
    "ignoreForZCount"    : [],
    "periods"            : {"pp 450 GeV "    : [[9322, 9450]],
                            "pp 13.6 TeV"    : [[9470, 10232]],
                            "PbPb 5.36 TeV"  : [[10329, 12000]]
                           },
    "workBaseDir"        : "/eos/project/l/lpc/public/MassiFiles",
    "lumiDir"            : "/data/lumiData",
    "srcDir"             : { "ATLAS" : "/eos/project/a/atlas-datasummary/public/lumifiles",
                             "CMS"   : "/eos/project/c/cms-runcoordination/LHCFILES",
                             "ALICE" : "/eos/project/a/alice-lhcif/massiFiles/",
                             "LHCb"  : "/eos/project/l/lhcbwebsites/www/online/TFC/LPCfiles" },
    "dataFormat"         : { "ATLAS" : ".tgz",
                             "CMS"   : ".tgz",
                             "ALICE" : ".tgz",
                             "LHCb"  : ".tgz" }
}
