# lui = integrated luminosity in 1/ub; plu = peak luminosity in Hz/ub; time = UNIX UTC time; file generated Mon, 01 Apr 2019 18:53:03 UTC
# fill  tstart  tstop  ATLAS_lui  CMS_lui  LHCb_lui  ALICE_lui  ATLAS_plu  CMS_plu  LHCb_plu  ALICE_plu
 7427  1541708363  1541733698            1            1            0            2 1.510e-04 1.720e-04 3.200e-05 2.065e-04
 7428  1541741102  1541752703            2            2            0            2 1.320e-04 1.290e-04 2.900e-05 8.785e-05
 7433  1541805329  1541820593           10           10            0            6 8.220e-04 8.150e-04 2.800e-05 4.479e-04
 7435  1541864777  1541885107           21           21            1           12 9.940e-04 9.870e-04 3.000e-05 5.904e-04
 7436  1541897140  1541917561           46           47            2           26 2.461e-03 2.445e-03 8.700e-05 9.689e-04
 7437  1541933644  1541947812           64           64            2           34 2.350e-03 2.360e-03 7.600e-05 9.662e-04
 7438  1541962710  1541986715           89           89            5           54 2.043e-03 2.016e-03 1.970e-04 1.002e-03
 7439  1542004896  1542030234          125          125            6           75 2.999e-03 2.960e-03 1.220e-04 1.044e-03
 7440  1542049336  1542077104          163          162            9           96 3.075e-03 3.775e-03 1.660e-04 1.172e-03
 7441  1542090535  1542117430          179          169           13          114 1.443e-03 1.459e-03 2.010e-04 9.124e-04
 7442  1542135376  1542149279          185          181           15          126 2.068e-03 2.059e-03 2.710e-04 9.953e-04
 7443  1542212137  1542233763          192          195           19          144 1.843e-03 1.845e-03 2.390e-04 9.750e-04
 7444  1542247020  1542273588          235          238           20          166 2.223e-03 2.231e-03 1.000e-04 1.021e-03
 7446  1542309239  1542335749          279          283           22          189 2.249e-03 2.231e-03 9.300e-05 1.012e-03
 7447  1542344205  1542344424          279          283           22          189 0.000e+00 1.888e-03 1.600e-04 1.018e-03
 7448  1542353526  1542380442          323          327           23          211 2.248e-03 2.660e-03 1.030e-04 1.030e-03
 7449  1542389473  1542416067          369          373           25          235 2.261e-03 2.274e-03 1.030e-04 1.050e-03
 7450  1542425421  1542451833          412          416           26          257 2.238e-03 2.231e-03 1.010e-04 1.044e-03
 7453  1542522977  1542568209          467          472           28          287 2.228e-03 2.274e-03 1.190e-04 1.058e-03
 7454  1542584123  1542642529          513          517           30          315 2.231e-03 2.231e-03 8.900e-05 1.121e-02
 7456  1542662470  1542687133          555          559           32          340 2.235e-03 2.231e-03 1.020e-04 1.075e-03
 7457  1542708236  1542734526          598          602           33          362 2.239e-03 2.231e-03 1.000e-04 1.040e-03
 7459  1542755386  1542755976          599          604           33          363 2.720e-03 2.746e-03 5.670e-04 1.016e-03
 7460  1542764489  1542781997          633          638           39          379 2.751e-03 2.703e-03 5.700e-04 1.041e-03
 7464  1542855492  1542878972          671          677           46          399 2.713e-03 2.703e-03 5.560e-04 1.220e-03
 7466  1542910139  1542941206          727          734           55          429 3.522e-03 3.518e-03 5.240e-04 1.087e-03
 7467  1542963538  1542992270          791          799           67          458 4.030e-03 4.033e-03 1.205e-03 1.073e-03
 7468  1543002191  1543037603          866          875           79          492 5.142e-03 5.148e-03 1.014e-03 1.071e-03
 7471  1543066522  1543095796          932          942           91          521 4.995e-03 4.976e-03 9.950e-04 1.102e-03
 7472  1543105500  1543133713          998         1009          102          549 5.007e-03 4.976e-03 1.025e-03 1.132e-03
 7473  1543142944  1543178229         1074         1085          115          588 6.125e-03 6.092e-03 1.057e-03 1.290e-03
 7474  1543194804  1543216131         1133         1144          125          609 5.917e-03 5.834e-03 1.019e-03 1.070e-03
 7475  1543251991  1543254308         1143         1147          127          611 6.107e-03 5.577e-03 1.020e-03 1.065e-03
 7477  1543271249  1543303184         1210         1214          139          642 5.648e-03 5.663e-03 1.000e-03 1.067e-03
 7480  1543360218  1543388616         1278         1285          150          671 5.986e-03 5.963e-03 1.098e-03 1.084e-03
 7481  1543399242  1543429605         1351         1360          163          701 5.969e-03 6.006e-03 1.037e-03 1.093e-03
 7482  1543443005  1543444906         1360         1368          165          702 5.721e-03 5.577e-03 1.025e-03 1.072e-03
 7483  1543455191  1543502081         1409         1415          167          738 4.059e-03 3.947e-03 2.760e-04 1.059e-03
 7485  1543523347  1543551628         1466         1471          177          766 4.610e-03 4.547e-03 9.350e-04 1.066e-03
 7486  1543567133  1543594487         1522         1527          187          794 4.836e-03 4.633e-03 9.500e-04 1.295e-03
 7487  1543604697  1543635280         1588         1594          198          825 5.600e-03 5.620e-03 1.065e-03 1.064e-03
 7488  1543646442  1543675593         1655         1660          210          854 5.836e-03 5.749e-03 1.017e-03 1.074e-03
 7489  1543685238  1543687919         1668         1673          212          856 5.787e-03 5.792e-03 9.990e-04 1.059e-03
 7490  1543696668  1543727362         1736         1741          224          887 5.887e-03 5.834e-03 1.006e-03 1.085e-03
 7491  1543736920  1543754334         1788         1794          234          904 5.798e-03 5.749e-03 1.002e-03 1.075e-03
 7492  1543762369  1543767055         1797         1802          235          907 2.343e-03 2.231e-03 2.470e-04 7.774e-04
