# lui = integrated luminosity in 1/ub; pui = peak luminosity in Hz/ub; time = UNIX UTC time; file generated Wed, 13 Feb 2013 18:42:55 UTC
# fill  tstart  tstop  ATLAS_lui  CMS_lui  LHCb_lui  ALICE_lui  ATLAS_plu  CMS_plu  LHCb_plu  ALICE_plu
3555  1360616837  1360624054       1434      22021       8916      3416    2.66    3.97    1.58    1.28
3556  1360631730  1360651412     603903     604151     372248      9866   56.24   54.82   35.38   44.87
3557  1360661552  1360666841     998542     985725     650027     19287  128.39  125.42   95.67    3.13
3558  1360674422  1360678574    1504043    1478770    1020981     30501  148.36  145.43  109.15    3.45
3559  1360705214  1360735140    3576108    1478770    2616727     81305  148.41    0.00  113.36    3.54
3560  1360742487  1360761237    4700474    1478770    3920035    121097  113.52    0.00  115.24    3.53
