# lui = integrated luminosity in 1/ub; pui = peak luminosity in Hz/ub; time = UNIX UTC time; file generated Tue, 29 Jan 2013 17:29:09 UTC
# fill  tstart  tstop  ATLAS_lui  CMS_lui  LHCb_lui  ALICE_lui  ATLAS_plu  CMS_plu  LHCb_plu  ALICE_plu
2469  1333579067  1333584717      35467      41987       7222      2895    7.04    8.39    1.53    0.74
2470  1333597197  1333611799      49567    1028506     216032      2895   13.99   80.81   28.78    0.00
2471  1333632438  1333640816     480367    1514161     308577      2895   81.33   85.67   27.03    0.00
2472  1333648471  1333664273    3912130    5235083     574145      2895  266.66  281.42   42.82    0.00
2479  1333716791  1333727467    6652406    8169043     725915      3885  305.01  313.46   21.55    0.13
2482  1333757272  1333769903   15784468   17960225    1210115      6979  874.37  922.10   77.67    0.32
2486  1333819055  1333824457   17072274   19317695    1269009      7039  263.67  278.11   17.87    0.02
2488  1333838929  1333854608   26578572   29781938    2088412     11188  867.98  939.78   68.98    0.36
2489  1333862220  1333877780   37381069   41923587    2781156     15403  892.34  970.57   71.02    0.36
2490  1333889650  1333894223   41777939   46720406    2937522     16924 1050.25 1120.58   61.71    0.63
2491  1333902006  1333939144   96018028  107089156    5752456     43917 2249.25 2411.00  133.49    1.13
2493  1333960345  1333983588  135742943  150628385    8639979     66155 2273.03 2459.43  177.46    1.33
2497  1334023395  1334033397  156676084  173527215   10057297     76327 2480.17 2619.14  186.02    1.22
2500  1334080831  1334101828  190802669  211423105   13422702     90551 2282.95 2450.29  185.71    0.95
2501  1334123977  1334133976  209091633  231850295   15014413     98677 2153.55 2351.99  178.80    1.04
2505  1334160038  1334189061  254012991  249673708   19932819    117805 2181.68 2354.83  183.55    0.93
2508  1334239323  1334261941  301277824  301987463   25064272    131558 2826.85 3032.27  243.92    0.80
2509  1334272735  1334293612  345188987  340934830   29690902    145189 2749.01 2996.75  242.84    0.85
2511  1334332330  1334336441  351183409  355181289   30481852    146977 3775.85 3789.50  284.77    0.91
2513  1334365885  1334403793  435548004  451573129   40275953    166635 3368.97 3647.82  307.85    0.98
2514  1334412957  1334445509  510189854  532085405   48316990    185741 3348.92 3622.41  263.66    0.82
2515  1334481560  1334484705  521377924  544346345   48831313    187530 3922.47 4156.99  259.41    0.75
2516  1334495865  1334523954  597891635  629903265   55703525    203117 3898.18 4184.22  266.30    0.82
2519  1334576485  1334580611  597921302  629976859   55707578    203203   32.97   31.11    1.56    0.51
2520  1334594089  1334618717  598111136  630449304   55732573    203694   19.24   27.69    1.27    0.11
2523  1334636527  1334661995  598163678  630484896   55828695    225519    2.54    2.93    5.79    4.06
2533  1334769594  1334793277  671537179  714754600   61745937    235698 5058.03 5062.51  291.63    1.18
2534  1334807697  1334822988  716430687  764179094   64760240    242127 4636.91 4985.46  265.54    1.03
2535  1334852629  1334862865  756317334  808480992   67104536    242127 4931.10 5281.02  272.04    0.00
2536  1334890330  1334925610  872077835  938287399   76014747    265593 5120.01 5506.27  270.86    1.33
2574  1335843199  1335845129  872376456  938550574   76202897    265609  192.76  197.94  150.00    0.03
2576  1335896164  1335918934  876165574  939584768   76559686    266242  227.42  230.17   20.38    0.04
2580  1335938757  1335963428  902273423  949071598   79834877    271962 1436.96 1410.37  144.03    0.38
2583  1335990560  1336004483  932214994  979100360   83177598    279258 2693.96 2634.22  265.86    0.73
2584  1336014929  1336018090  939518439  986382559   83664873    280921 2796.27 2767.88  404.19    0.68
2587  1336070036  1336096070  992285692 1040484299   90037700    293047 2882.84 2840.90  262.15    0.70
2590  1336311578  1336324329 1018887342 1068119669   93121545    300201 2503.97 2557.13  267.92    0.68
2591  1336341263  1336346033 1032954924 1082654767   94549004    303906 3264.74 3353.86  331.10    0.87
2593  1336365550  1336382155 1073244603 1124106737   99686535    313111 3109.08 3142.69  328.33    0.73
2596  1336422966  1336461582 1162838212 1216990457  111510905    329879 3567.50 3576.69  338.01    0.62
2605  1336634236  1336639797 1168464688 1222599749  111982206    330787 1321.51 1331.98  128.40    0.23
2608  1336664104  1336665998 1175070001 1229524300  112291653    331694 3876.22 3942.36  371.74    0.61
2609  1336675244  1336691301 1220635286 1272286982  118017866    338762 3706.23 3800.49  404.85    0.59
2616  1336737857  1336744737 1246376998 1298134796  120479222    338762 4308.86 4325.97  412.74    0.00
2617  1336771244  1336772824 1252258837 1304104868  120884635    338762 4109.94 4110.53  405.38    0.00
2621  1336805289  1336853128 1372117316 1426996969  139644701    351420 4231.56 4144.44  417.83    0.58
2623  1336876021  1336895631 1433589008 1490436365  147282653    357037 4126.46 4128.80  421.74    0.61
2624  1336928076  1336946679 1495618546 1554330145  154475951    361968 4308.38 4312.61  427.51    0.90
2627  1336958911  1336995468 1595279494 1655785740  168683741    381603 4111.92 4146.51  420.54    0.92
2628  1337026663  1337054942 1690946788 1753479107  179801435    393333 4836.56 4827.79  419.93    0.87
2629  1337084998  1337106129 1760615280 1823892777  188061061    399611 4214.07 4204.15  411.79    0.80
2630  1337115325  1337130550 1826363796 1890728073  193726174    399611 5417.12 5466.72  419.08    0.00
2632  1337194558  1337195109 1828203410 1892754712  193760969    399611 4972.79 4944.84  200.30    0.00
2634  1337217411  1337222326 1850642935 1915454973  195578306    399611 5142.08 5185.98  426.12    0.00
2635  1337230116  1337248957 1928657279 1994177578  202743216    399611 5533.92 5530.40  414.47    0.00
2644  1337342134  1337395259 2099456064 2168176961  223313200    427182 5655.53 5591.46  415.89    1.42
2645  1337415787  1337417586 2109437303 2177998553  223859595    427182 6001.42 5985.08  404.51    0.00
2646  1337426077  1337484190 2297408583 2369512293  246330015    455170 5947.67 5887.21  409.24    1.00
2648  1337530500  1337550596 2376088977 2449040787  253832709    459859 5162.98 5255.35  417.09    0.93
2649  1337600478  1337626832 2485134842 2559071772  263915204    469050 5854.68 5662.76  425.03    1.05
2651  1337669328  1337740069 2697660167 2757949322  290737712    533524 5680.76 5641.88  411.11    1.92
2653  1337756100  1337758366 2709398351 2769310222  291415059    533610 5699.48 5505.64  397.11    1.50
2657  1337791293  1337813099 2801879131 2861534462  299797587    534818 5713.55 5488.46  409.76    5.05
2658  1337824379  1337829319 2828627631 2888432242  301547924    540042 5946.22 5917.03  403.64    9.91
2660  1337873688  1337878151 2852943097 2912895052  303155464    540328 6147.03 6032.92  398.14    2.09
2663  1337910247  1337951088 3017843287 3080101490  318979405    566380 6524.03 6386.38  412.89    2.16
2669  1338006242  1338035866 3150086079 3215743403  330470419    580315 6507.15 6454.30  411.64    1.87
2670  1338160396  1338165252 3177306823 3243002393  332154363    580462 6662.37 6544.32  404.14    1.83
2671  1338176021  1338202294 3296709104 3364794917  342232129    595643 6483.02 6406.68  410.32    1.82
2673  1338235085  1338245236 3346889558 3420585167  345992331    595722 6170.39 6302.05  405.81    1.09
2675  1338265540  1338280321 3423042443 3498194875  351569581    595968 6549.32 6452.80  404.18    1.61
2683  1338387973  1338393972 3455813764 3531181901  351760376    596107 6247.63 6180.01  409.51    1.63
2684  1338402795  1338415268 3521360609 3598894721  356288051    596253 6414.91 6453.22  424.39    1.93
2686  1338436858  1338472884 3671823521 3751681321  370080670    615657 6431.69 6336.15  417.20    1.90
2691  1338550911  1338601384 3840040622 3920623872  388530704    653973 5896.12 5766.99  410.98    1.40
2692  1338613818  1338695925 4077362500 4163828732  418773416    691237 6299.23 6281.50  409.43    1.87
2698  1338830760  1338848901 4166549187 4250794162  425693017    703118 6404.37 6375.81  420.25    1.53
2700  1338871410  1338877531 4198557120 4285134942  427857886    703239 6374.03 6331.59  402.84    2.78
2701  1338888856  1338931605 4356679121 4448078777  444271982    738446 5700.67 6160.59  416.63    2.18
2710  1339005876  1339058348 4558049537 4637470129  464582512    785005 6760.11 6638.82  424.30    1.95
2711  1339081446  1339091052 4610902051 4689866714  468251341    785978 6466.51 6300.31  415.18    1.73
2712  1339102123  1339142656 4772987067 4853395265  483258679    810144 6716.54 6573.93  424.24    1.63
2713  1339162863  1339163598 4775457957 4855858408  483446611    810302 6560.87 6350.38  624.62    1.72
2714  1339173966  1339180562 4813297035 4884909538  485829316    810302 6569.63 6141.38  412.85    0.00
2717  1339239902  1339296417 5013171607 5086158168  507879612    849808 6367.69 6321.06  443.67    1.40
2718  1339311039  1339364562 5209346208 5285656298  528881148    893761 6414.17 6325.84  419.08    1.75
2719  1339372429  1339372738 5210666847 5287036979  528894485    893766 6598.27 6481.03   75.03    1.54
2720  1339380445  1339382327 5221889140 5298364169  529485708    894018 6479.07 6326.13  398.96    1.45
2723  1339418045  1339426955 5271007109 5341878311  532810404    894379 6447.94 6364.38  409.24    1.64
2724  1339437796  1339442300 5296812772 5367831765  534277545    894519 6308.24 6350.57  406.98    1.16
2725  1339487056  1339512662 5416788089 5478491627  544179038    915890 6615.67 6496.84  426.43    1.92
2726  1339531714  1339564418 5559016286 5623699460  556787972    943753 6509.01 6461.28  414.27    1.99
2728  1339580510  1339623301 5733765292 5799738900  573430168    970364 6592.91 6512.83  438.42    1.02
2729  1339639239  1339651814 5801546777 5868115161  578239474    973800 6561.47 6476.39  424.61    2.46
2732  1339698506  1339705382 5841933641 5908233871  580725687    974134 6723.95 6522.94  404.49    2.78
2733  1339720962  1339768568 6029802612 6095362968  599419147   1024921 6689.37 6597.34  555.31    2.44
2734  1339793439  1339849572 6234348229 6300974063  621459211   1084580 6352.95 6237.22  455.47    2.69
2736  1339870219  1339933343 6470024793 6535300498  646215723   1142363 6579.45 6428.01  418.01    2.01
2737  1339959473  1339972741 6536444320 6601903783  651221740   1146575 6106.04 6027.97  424.83    2.11
2739  1340008180  1340017651 6587558433 6653161113  654551333   1146575 6478.52 6326.78  438.79    0.00
2795  1341185505  1341193836 6589964674 6655450975  654688117   1147096  331.78  317.94   18.83    0.08
2797  1341205083  1341230552 6628565512 6690682850  655916904   1147307 2103.25 1882.16  153.53    0.38
2798  1341249841  1341252152 6636545824 6698536758  656333265   1149170 3781.91 3660.06  254.45    0.86
2805  1341341715  1341374927 6708636112 6770098287  664493533   1165656 3350.02 3378.98  273.36    0.78
2806  1341387107  1341420499 6811600098 6875315039  677227058   1180294 4745.82 4794.77  424.05    0.76
2807  1341439744  1341478494 6959286160 7024590136  691971499   1212282 6228.61 6164.97  411.66    1.34
2810  1341515433  1341515884 6960357387 7025649808  691982803   1212431 5978.70 5548.86   50.98    0.83
2812  1341538255  1341539805 6968361907 7033445428  692410674   1213818 5781.33 5699.05  390.44    1.56
2816  1341675421  1341718137 7121746650 7191755228  708686458   1223057 5916.07 5846.37  459.78    0.35
2819  1341769157  1341773279 7143245962 7213250594  710016969   1224129 5784.91 5751.80  403.81    0.35
2822  1341867375  1341871123 7143273799 7213274917  710016969   1224129    8.10    7.26    0.00    0.00
2824  1341887360  1341888411 7143288869 7213289212  710016969   1224129   16.13   14.51    0.00    0.00
2825  1341896804  1341898790 7143324773 7213322937  710016969   1224129   21.41   20.63    0.00    0.00
2836  1342109455  1342156618 7143364263 7213380748  710016969   1224129    1.39    1.72    0.00    0.00
2840  1342214633  1342219265 7166569413 7237798248  711110499   1229208 5654.85 5818.39  401.32    1.65
2842  1342241887  1342283513 7314731196 7386748688  727383215   1275781 5876.80 5635.07  410.06    1.39
2843  1342293471  1342322012 7428702994 7499517488  738117501   1306789 5880.48 5669.99  401.60    1.73
2847  1342367094  1342381388 7494772332 7566663850  743466736   1322745 5849.78 5818.63  401.86    1.87
2848  1342390704  1342424543 7623092802 7698572250  756599194   1351421 5754.62 5778.53  427.91    1.59
2852  1342489089  1342506266 7623097526 7698577212  756629097   1376340    0.32    0.32    3.61    2.90
2853  1342639946  1342669097 7623135801 7698615102  756657733   1377464    1.52    1.49    1.98    0.25
2855  1342680127  1342713519 7623196351 7698692037  756682125   1378418    3.17    3.59    0.82    0.05
2856  1342723909  1342736968 7623218249 7698717446  756689907   1379120    2.96    2.95    0.64    0.22
2858  1342759480  1342808440 7798336619 7879155146  775947837   1379120 6279.62 6288.90  421.05    0.00
2861  1342834758  1342838229 7817878986 7898827386  777155785   1379175 6166.00 6112.94  402.36    0.87
2870  1342909944  1342940271 7929383686 8014329386  788812877   1412681 5611.51 5612.21  433.60    1.34
2871  1342950528  1342968365 8005903949 8093096626  795683017   1432324 5675.09 5778.19  405.08    1.47
2872  1342976671  1343031133 8172493805 8264702096  816837769   1490655 5580.04 5535.02  410.74    2.68
2873  1343074501  1343117666 8324516801 8419086742  833743011   1540276 5831.97 5804.92  422.00    1.55
2875  1343144742  1343200218 8497283939 8594444042  855323575   1592125 5723.71 5648.02  481.80    1.45
2880  1343268466  1343301921 8614920438 8712560142  868307487   1627879 5485.54 5420.53  407.82    2.21
2882  1343330028  1343332279 8623859852 8721536825  868822115   1627879 5702.06 5573.52  399.70    0.00
2883  1343346000  1343346298 8624182494 8721981061  868830779   1627897 2639.07 2895.60   90.09    0.42
2884  1343356275  1343391117 8745108551 8844411788  882397450   1687413 5424.58 5397.91  418.79    2.64
2886  1343423402  1343436811 8805790866 8906002098  887480441   1711370 5652.57 5709.05  427.79    2.13
2887  1343445712  1343462949 8882137067 8983355268  894148449   1741679 5884.95 5895.88  411.44    2.21
2888  1343486550  1343543550 9065096126 9170022038  916335147   1812893 6078.28 6110.92  418.98    1.99
2891  1343577905  1343600182 9162828398 9267965425  924903957   1842667 6125.88 5990.12  406.20    2.00
2892  1343615189  1343651293 9301168165 9406743735  939037166   1891825 6165.28 6167.28  424.01    2.25
2893  1343683359  1343700115 9377200240 9483635165  945409133   1917457 5958.84 5900.94  406.21    2.01
2894  1343709654  1343713072 9395504957 9502061655  946657007   1923078 5978.99 5937.40  407.02    2.06
2896  1343726177  1343726922 9398703979 9505268144  946828669   1923355 5919.16 5859.62  395.51    0.55
2898  1343755241  1343813691 9562361438 9668752635  965686141   1993783 6040.83 5970.44  412.87    3.47
2900  1343829556  1343842073 9622421348 9729476125  970570124   2017065 5976.17 5962.32  409.92    3.04
2902  1343856758  1343902155 9784200629 9880068825  987180692   2074391 5966.42 5923.92  413.67    2.85
2905  1343946153  1343948152 9790009465 9886169640  987548949   2075125 5838.44 5805.75  402.81    2.53
2906  1343958186  1343961533 9808323537 9904552754  988759178   2077246 6037.81 6079.43  408.30    2.44
2908  1343978247  1344014048 9943631573 10039660057 1002805034   2111555 5971.72 6001.89  413.67    2.10
2911  1344059951  1344077284 10005222225 10102322067 1009515103   2138116 4611.46 4668.14  406.31    2.00
2912  1344086938  1344114869 10126803398 10223003874 1020540015   2169335 6411.42 6318.71  512.24    2.09
2918  1344272879  1344291892 10197385685 10288782644 1027835672   2186117 4733.15 4269.76  420.32    1.15
2920  1344308728  1344313327 10223852757 10315302664 1029419193   2188021 6418.00 6368.14  409.12    1.99
2926  1344367310  1344372515 10231405264 10322536685 1029984174   2188021 2037.55 1932.56  153.62    0.00
2927  1344382164  1344411216 10337033160 10425794285 1041197461   2188021 5597.11 5391.25  403.22    0.00
2928  1344420639  1344429924 10382476944 10471405135 1041416779   2193621 6293.68 6245.16   32.11    1.72
2929  1344449004  1344469940 10478619377 10565864694 1048582779   2202621 6423.57 6331.90  419.62    0.65
2932  1344483304  1344506479 10581705324 10669656692 1057402662   2209783 6626.04 6539.26  461.03    0.50
2934  1344547546  1344579753 10714869608 10804779170 1069762060   2217537 6465.77 6419.61  417.75    0.43
2957  1344808845  1344844498 10868989714 10959048295 1083437530   2226356 6796.58 7020.96  439.86    0.43
2974  1345020582  1345023540 10869916397 10959914221 1083496108   2226373  357.08  347.13   57.28    0.02
2975  1345039206  1345041134 10873901890 10963882742 1083524762   2226723 2267.99 2203.20   26.36    0.20
2976  1345052867  1345093814 11022869358 11113875182 1099600936   2236308 6093.59 5994.75  433.21    0.42
2977  1345104751  1345104909 11022999277 11114088010 1099605864   2236308 2131.27 6335.76  156.63    0.00
2978  1345122394  1345127054 11050673288 11142158310 1101326297   2238926 6684.05 6607.80  410.93    0.64
2980  1345155719  1345165796 11106470916 11196830290 1105146103   2239025 6685.11 6508.50  533.29    0.58
2981  1345176045  1345179654 11129480487 11219676776 1106382519   2239025 7214.67 7159.08  405.27    0.00
2983  1345210889  1345268238 11330615057 11418053278 1128952599   2254213 7049.01 6820.52  421.38    0.59
2984  1345277043  1345346088 11554258926 11642368703 1154570197   2270811 7422.27 7239.14  414.02    0.63
2987  1345375395  1345377642 11568864052 11656507109 1155310883   2271860 7198.30 7021.07  409.63    0.53
2991  1345480535  1345530294 11744475405 11831122809 1173603251   2271860 6683.62 6444.82  425.77    0.00
2992  1345558240  1345582408 11849973580 11935954671 1182933905   2291205 6359.90 6162.66  405.98    1.23
2993  1345607237  1345650765 12029507941 12109815445 1199997713   2333442 7245.66 5553.91  434.49    1.93
2994  1345669324  1345671115 12029669032 12109971344 1199997713   2333442  103.22   99.98    0.00    0.00
2995  1345682102  1345683562 12038972258 12119212031 1200389920   2334459 7089.87 6768.87  398.71    1.88
2996  1345732251  1345745488 12110013985 12190262891 1205477407   2351225 6946.23 6777.64  421.31    1.65
2997  1345754741  1345773604 12210033962 12289469343 1212663091   2353690 7266.14 7048.44  415.02    2.18
2998  1345789854  1345816982 12344782659 12424055383 1223166616   2372765 7725.66 7535.23  469.94    3.09
3000  1345844151  1345852844 12397240199 12475944183 1226384449   2380921 7326.87 7092.64  409.69    2.07
3002  1345880007  1345925781 12574604964 12653657848 1244167943   2419927 7240.37 7056.28  413.25    1.57
3003  1345938530  1345941098 12591622571 12670605518 1245058703   2421494 7313.99 7148.94  403.87    2.22
3005  1345964666  1345994598 12723860933 12802620036 1256615403   2449146 6955.60 6817.68  411.58    1.78
3006  1346011736  1346013168 12732459542 12810924110 1257027135   2450848 6900.54 6665.63  403.99    2.15
3007  1346021637  1346031903 12790678218 12868273350 1260899155   2453488 6966.89 6591.11  417.66    1.55
3009  1346101253  1346102394 12797541698 12874947600 1261135549   2454825 7329.70 7144.51  402.36    1.80
3011  1346112589  1346155845 12974070131 13049183484 1278038141   2479257 7045.74 6882.24  423.57    1.61
3015  1346351951  1346352040 12974070137 13049183613 1278038141   2479257    0.12    1.85    0.00    0.00
3016  1346364208  1346396557 13101535028 13172926341 1289618343   2495298 6677.72 6426.02  407.32    1.13
3018  1346432103  1346479726 13274298796 13342155670 1306813799   2522805 6718.75 6593.00  391.83    1.12
3019  1346492099  1346512341 13366067243 13434529510 1313957256   2533247 6635.02 6559.57  382.95    0.80
3020  1346541795  1346559465 13453493392 13522308070 1320772525   2542994 6867.96 6728.78  464.62    0.85
3021  1346569731  1346616351 13621094664 13687546274 1338821169   2558279 6616.15 6441.88  442.54    0.87
3023  1346635508  1346635775 13621936885 13688650521 1338831206   2558398 7090.79 6947.42  129.12    0.98
3025  1346696950  1346731798 13755069299 13821100021 1352354444   2571834 6192.70 5965.42  417.08    0.75
3027  1346761190  1346765973 13780136676 13844631978 1353935541   2574612 6350.66 6004.50  401.06    0.72
3029  1346795342  1346819731 13899667679 13964145178 1363405155   2590873 6947.50 6841.13  421.10    1.07
3032  1346853470  1346886938 14020988408 14084744878 1375735510   2602254 6177.97 5945.66  416.02    0.73
3033  1346922754  1346957556 14166449216 14230346371 1389075976   2614838 7063.48 6939.15  408.16    0.71
3034  1346966915  1346972094 14200188265 14263777811 1390898356   2618871 7545.79 7313.29  403.48    0.94
3036  1346990419  1347010504 14302574541 14363332892 1398280179   2624435 7140.21 6930.99  398.20    0.81
3039  1347054741  1347057667 14321789344 14382119762 1399202141   2626730 7439.63 7164.18  392.95    0.93
3045  1347135702  1347179887 14500923433 14554442215 1415960824   2643148 7352.33 7100.20  408.81    0.73
3047  1347211615  1347249818 14648096776 14700462315 1430264852   2643148 6849.81 6607.52  400.25    0.00
3054  1347354801  1347360909 14648096776 14700462315 1430264852   2643148    0.00    0.00    0.00    0.00
3056  1347492391  1347521793 14648096781 14700462316 1430264852   2643150    0.00    0.00    0.00    0.00
3067  1347731289  1347780655 14814181445 14853583486 1448047758   2657585 6061.10 5550.80  514.47    0.58
3071  1347818911  1347854710 14956287840 14996307586 1461999745   2680711 6421.03 6287.18  420.74    0.98
3087  1348660744  1348674854 14957800948 14997732355 1462039549   2680855  318.45  305.87  155.32    0.03
3102  1348734884  1348739376 14963052665 15003298566 1462189666   2682034 1598.31 1539.82   68.30    0.31
3108  1348812053  1348818162 14980880247 15019910100 1462478940   2685545 3320.58 3196.18   54.84    0.66
3109  1348850441  1348867097 15011044371 15056538948 1464030314   2690104 2994.01 2853.34  167.22    0.38
3110  1348892970  1348895564 15023209263 15068648468 1464682776   2692243 5332.74 5136.75  420.83    1.02
3113  1348975338  1349004347 15126544328 15171186668 1465011077   2711665 5603.52 5326.31  401.80    1.11
3114  1349015024  1349053998 15276045148 15321729608 1480187501   2746819 6925.67 6876.24  740.99    1.69
3121  1349131111  1349174777 15427185988 15470855311 1494613483   2794327 6331.60 6257.72  536.41    2.08
3124  1349209730  1349213157 15446010860 15489070221 1495556255   2800182 6397.09 6169.37  347.43    2.09
3126  1349236246  1349259367 15558790330 15604555361 1504581489   2835715 7157.20 7129.28  438.80    2.59
3128  1349296592  1349297582 15564231734 15609899628 1504847041   2837603 6417.81 6374.03  409.99    2.56
3129  1349315310  1349331981 15647286724 15692676318 1511134785   2869230 6718.29 6645.01  429.02    2.92
3130  1349381720  1349383020 15655551310 15694600297 1511518257   2873996 7182.54 6903.13  402.83    4.46
3131  1349398287  1349410882 15723075954 15759044903 1516401948   2912163 6564.66 6442.65  408.76    3.93
3133  1349432267  1349484535 15910399672 15944895682 1536839130   3022254 7337.95 7250.96  415.55    5.01
3134  1349494725  1349539625 16088327402 16123231561 1554450438   3115344 6565.40 6428.18  426.11    3.84
3135  1349548133  1349584335 16246148918 16280240911 1568607462   3179231 7108.37 6910.98  427.23    4.72
3138  1349622194  1349658010 16395523205 16429643492 1582585840   3291895 7310.14 7243.72  410.98   10.27
3160  1350007912  1350016489 16395633830 16429747255 1582588416   3291895   15.95   15.11    0.42    0.00
3169  1350145293  1350146944 16396112835 16430218596 1582642868   3291895  333.62  325.27   55.56    0.00
3178  1350193743  1350202271 16444304055 16478860126 1585866413   3358692 6839.62 6774.69  411.94   13.56
3182  1350248299  1350263800 16521484960 16557190576 1591754596   3465836 6728.24 6834.03  424.89   15.72
3185  1350297804  1350325887 16643534291 16679305714 1602626936   3656674 6827.19 6787.46  406.81   18.76
3188  1350352969  1350378059 16748949010 16784298504 1612481731   3832812 6577.70 6511.37  436.39   17.51
3191  1350424675  1350427532 16765183008 16800479084 1613482582   3854390 6500.38 6359.41  405.33   19.03
3192  1350436919  1350480418 16918862712 16954831304 1629793115   4033540 6663.00 6682.28  470.32   14.52
3194  1350495718  1350541092 17083693161 17121665664 1647560591   4250844 6329.23 6376.47  421.88   16.89
3200  1350637849  1350667767 17188670037 17215766144 1659140782   4396703 6450.34 6231.36  407.10   14.58
3201  1350687656  1350724744 17321539193 17322211652 1668996035   4499548 7220.81 7191.05  406.86    7.39
3203  1350757264  1350799535 17494594974 17496736012 1685475983   4621336 7023.07 6969.17  418.63    5.11
3204  1350811555  1350841452 17604698516 17603868292 1697155459   4700515 6496.13 6359.90  415.50    6.41
3207  1350863888  1350879957 17692841168 17692227862 1702982134   4779298 7611.20 7543.49  411.83   11.05
3208  1350905432  1350920677 17768867514 17761834624 1708690901   4860111 6297.89 6034.14  415.73    8.26
3209  1350948159  1350957784 17822323712 17814061564 1712061910   4913557 6893.35 6672.97  401.55    7.02
3210  1350966954  1350978434 17888459778 17879709494 1716457925   4969946 7298.80 7188.69  416.10    7.62
3212  1351009408  1351012898 17909982713 17901070214 1717537089   4985336 6874.98 6779.31  406.82    8.39
3214  1351042876  1351062583 18005886406 17995869024 1725276795   5093136 6415.98 6201.83  413.75    7.94
3220  1351173572  1351175206 18014265335 18004811481 1725740838   5110537 6720.47 6626.84  405.15   21.27
3223  1351198390  1351204049 18048231705 18038837161 1727823049   5148172 6812.06 6736.35  403.78    9.55
3225  1351226274  1351226595 18048735159 18039207873 1727829796   5148524 7467.53 7294.46   55.39    9.53
3226  1351235930  1351242684 18087638426 18077279593 1730222174   5185514 6926.42 6710.84  402.75   14.18
3229  1351301828  1351317618 18175076131 18165588698 1736310328   5214417 7313.04 7312.58  408.78    2.47
3231  1351341200  1351348243 18218923857 18180775688 1738935186   5250413 7319.51 5998.18  414.64    6.16
3232  1351356620  1351395699 18378795318 18341942588 1753871793   5361550 7253.70 7201.80  415.72    5.36
3236  1351444140  1351508994 18594486603 18552199814 1778925131   5558586 7359.08 7338.66  421.11    7.78
3238  1351547758  1351564564 18677418176 18629693009 1785414257   5670824 6624.40 6519.12  422.00   11.08
3240  1351597159  1351602468 18709854765 18662778299 1787439295   5702642 6947.87 6944.89  403.27    7.86
3242  1351622238  1351638456 18794108784 18747508221 1793690208   5788343 7036.47 6933.91  408.17    8.42
3244  1351653219  1351661293 18843657320 18797827021 1796774519   5836568 7336.43 7394.83  418.09    9.45
3249  1351716144  1351770358 19041116070 18998321881 1817944117   6028949 7031.98 7067.28  423.19    9.93
3250  1351781777  1351797209 19124571279 19081910811 1823903036   6123718 7225.25 7030.82  404.92   10.09
3252  1351820855  1351832461 19189898536 19148049991 1828351301   6199521 7116.26 7095.94  421.94   10.04
3253  1351842327  1351856437 19268960421 19226671651 1833756358   6283786 7255.68 7178.79  412.86   10.51
3259  1351895971  1351930006 19411933124 19368961531 1847029153   6454593 6592.71 6432.84  409.38    8.36
3261  1351966466  1351987038 19517166468 19474856553 1854987788   6553962 7266.64 7251.52  421.56    9.50
3262  1351997977  1351999880 19527708965 19485448283 1855556381   6565338 6819.23 6618.08  402.28    8.01
3264  1352030040  1352035694 19561008993 19517831313 1857576201   6598777 7142.33 6994.00  406.24    8.10
3265  1352075497  1352124592 19744081239 19700677251 1876717867   6773221 6984.05 6903.48  408.52    8.73
3266  1352150205  1352208644 19942075287 19896541591 1899453033   6958255 6555.25 6354.79  451.06    7.54
3269  1352292149  1352337104 20129261966 20084533326 1915055454   7169820 7238.56 7147.59  417.93   11.22
3272  1352377958  1352390460 20198812744 20145801036 1919581345   7237713 7236.34 6834.24  417.86   10.23
3273  1352425679  1352454448 20323935993 20273065756 1930785308   7385107 6577.03 6577.37  416.96    9.46
3279  1352663455  1352691430 20451895963 20405273176 1938758092   7499242 7063.79 7116.85  418.34    8.13
3285  1352811362  1352848082 20605071660 20558855135 1953117594   7569838 7075.73 6984.39  433.49    3.42
3286  1352860297  1352897708 20765561293 20723202740 1967625888   7690903 7488.59 7502.16  413.61    6.60
3287  1352917882  1352950389 20902218952 20860283200 1978347479   7801332 6395.81 6339.07  405.62    5.73
3288  1352959053  1353006253 21078844328 21029232893 1996766849   7907563 6689.40 6667.83  415.38    5.10
3292  1353039363  1353052691 21146818188 21097778410 2001751739   7955006 6406.88 6358.17  407.33    4.88
3293  1353061633  1353066345 21175127860 21126400607 2003495516   7972373 6858.36 6896.08  416.34    4.60
3296  1353137021  1353181961 21352316873 21307456107 2021136058   8048239 6981.67 7021.39  424.42    4.41
3297  1353191993  1353193565 21362116405 21316995450 2021583006   8052390 7237.49 7330.25  407.60    4.30
3298  1353202083  1353213945 21430509458 21387355530 2026052600   8070585 7369.56 7526.89  415.49    4.19
3299  1353232404  1353274805 21603194710 21562412220 2042533814   8152935 7272.50 7239.92  437.42    4.51
3300  1353299898  1353330470 21748287162 21710722801 2054216892   8255548 7420.73 7455.36  413.71    6.17
3310  1353567395  1353571200 21748287204 21710722934 2054217005   8255548    0.06    0.14    0.51    0.00
3311  1353602024  1353624364 21748308479 21710776369 2054232200   8256450    2.91    2.79    3.16    0.14
3314  1353664467  1353665274 21748309400 21710777532 2054232200   8256513    1.94    1.84    0.00    0.11
3316  1353698974  1353730478 21748381823 21710828324 2054247665   8256513    2.86    2.73    1.57    0.00
3318  1353747082  1353785040 21889928119 21857729921 2069116538   8256513 6146.77 6297.21  412.80    0.00
3319  1353796240  1353804615 21932747515 21902048350 2070041906   8304624 6203.92 6371.39  431.19    9.47
3322  1353815608  1353856117 22094270057 22070319250 2085889369   8452512 6895.99 7048.57  409.28    9.80
3323  1353867664  1353906399 22254570734 22234108750 2100840398   8597014 6913.99 6938.62  412.80    7.12
3347  1354238210  1354273836 22406188037 22390394486 2114793986   8693684 7553.33 7665.41  453.61    5.61
3350  1354299028  1354327078 22526452067 22513653246 2127410166   8812354 6613.90 6570.86  610.60    9.16
3351  1354345970  1354374309 22647572269 22636796865 2138450493   8949452 6733.29 6785.44  425.87   10.11
3360  1354416916  1354460965 22817428903 22810106699 2155726325   9098835 7061.87 7089.41  413.79    8.44
3363  1354487257  1354529131 22983113775 22978870519 2172099238   9221701 6948.04 6967.64  413.23    8.31
3370  1354595374  1354610151 23059095749 23055288469 2177528237   9308768 6679.47 6688.73  404.98   11.69
3372  1354622431  1354627071 23060465237 23056627437 2177538531   9308768  340.01  329.98    3.92    0.00
3374  1354642976  1354656413 23129961950 23127269691 2185311609   9388443 6940.98 6947.13 1005.88   10.65
3375  1354687148  1354700479 23201031096 23200281378 2187810620   9474178 6733.10 6757.25  404.88   10.95
3378  1354744793  1354753984 23255359597 23255339058 2189158726   9530635 7090.32 7127.45  404.45   10.56
3441  1355585174  1355591208 23256235529 23256246602 2189224787   9560271  170.12  175.57   18.92    8.39
3442  1355601135  1355608873 23258409466 23258432695 2189521946   9596870  344.29  359.71   41.25   10.61
3453  1355665165  1355695188 23269351800 23269321214 2191910469   9678216  582.56  615.10  122.85   30.28
