  311.0    0.0056541    0.0053553    0.0051647    0.0000000  0.0000003309 0.0000002835 0.0000003555 0.0000000000
  312.0    0.0286238    0.0274890    0.0278433    0.0000000  0.0000035586 0.0000034525 0.0000035418 0.0000000000
  313.0    0.1041633    0.1000438    0.0980805    0.0000000  0.0000036647 0.0000033443 0.0000035749 0.0000000000
  314.0    0.1041633    0.1000438    0.0980805    0.0000000  0.0000000000 0.0000000000 0.0000000000 0.0000000000
  315.0    0.1846565    0.1775614    0.1687324    0.0000000  0.0000060144 0.0000057657 0.0000057331 0.0000000000
  316.0    0.3630444    0.3130874    0.3314218    0.0000000  0.0000089901 0.0000071829 0.0000086437 0.0000000000
  317.0    0.9169471    0.8480133    0.8380500    0.0000000  0.0000198037 0.0000191909 0.0000190593 0.0000000000
  318.0    1.4955757    1.3936099    1.3760998    0.0000000  0.0000286147 0.0000266019 0.0000277258 0.0000000000
  319.0    1.7706896    1.6510739    1.6217160    0.0000000  0.0000167940 0.0000155151 0.0000157070 0.0000000000
  320.0    2.0957408    1.9521018    1.9240543    0.0000000  0.0000220010 0.0000199434 0.0000208593 0.0000000000
  321.0    2.0957408    1.9521018    1.9240543    0.0000000  0.0000000000 0.0000000000 0.0000000000 0.0000000000
  322.0    2.0957408    1.9521018    1.9240543    0.0000000  0.0000000000 0.0000000000 0.0000000000 0.0000000000
  323.0    2.0957408    1.9521018    1.9240543    0.0000000  0.0000000000 0.0000000000 0.0000000000 0.0000000000
  324.0    2.4876077    2.3535511    2.3206112    0.0000000  0.0000190481 0.0000183047 0.0000184810 0.0000000000
  325.0    3.1543133    2.9982314    2.8461027    0.0000000  0.0000223418 0.0000212126 0.0000214975 0.0000000000
  326.0    3.5140536    3.3408813    3.1829748    0.0000000  0.0000153979 0.0000146089 0.0000149581 0.0000000000
  327.0    3.8636994    3.6698370    3.4436862    0.0000000  0.0000124736 0.0000113758 0.0000113925 0.0000000000
  328.0    4.3218260    4.1059728    3.8116055    0.0000000  0.0000205105 0.0000194988 0.0000194733 0.0000000000
  329.0    5.0846839    4.8328028    4.5299950    0.0000000  0.0000258390 0.0000241806 0.0000246174 0.0000000000
  330.0    5.6396523    5.3615432    5.0614238    0.0000000  0.0000297069 0.0000269068 0.0000278771 0.0000000000
  331.0    6.5042410    6.1585875    5.8737397    0.0000000  0.0000232611 0.0000203372 0.0000222406 0.0000000000
  332.0    6.6933565    6.3141828    6.0469398    0.0000000  0.0000192385 0.0000176259 0.0000183254 0.0000000000
  333.0    7.7154422    7.2428899    6.9748540    0.0000000  0.0000266431 0.0000245302 0.0000255880 0.0000000000
  334.0    8.2417812    7.7347684    7.4736629    0.0000000  0.0000295225 0.0000273922 0.0000277292 0.0000000000
  335.0    8.4507933    7.9227066    7.6626806    0.0000000  0.0000256173 0.0000241486 0.0000241065 0.0000000000
  336.0    8.4507933    7.9227066    7.6626806    0.0000000  0.0000000000 0.0000000000 0.0000000000 0.0000000000
  337.0    8.8638239    8.3145218    8.0524931    0.0000000  0.0000226160 0.0000215243 0.0000215584 0.0000000000
  338.0    9.1590061    8.5916109    8.2826910    0.0000000  0.0000199977 0.0000182975 0.0000176744 0.0000000000
  339.0    9.8791962    9.2701626    8.9908304    0.0000000  0.0000296765 0.0000278360 0.0000286809 0.0000000000
  340.0    0.0000000    0.0000000    0.0000000    0.0000000  0.0000000000 0.0000000000 0.0000000000 0.0000000000
