 1005.0        7.66        5.67        6.14        6.63      0.00093     0.00079     0.00084     0.00086
 1013.0       34.14       31.07       32.27       33.24      0.00120     0.00105     0.00117     0.00120
 1019.0       52.74       37.16       42.37       41.60      0.00186     0.00071     0.00175     0.00108
 1022.0      135.93       97.30      120.92      130.11      0.00143     0.00134     0.00159     0.00174
 1023.0      207.73      144.58      184.64      193.39      0.00219     0.00141     0.00189     0.00198
 1026.0      219.81      152.14      194.03      197.88      0.00162     0.00131     0.00125     0.00067
 1031.0      273.85      152.14      239.12      235.72      0.00195     0.00000     0.00173     0.00179
 1033.0      282.21      157.76      250.11      246.32      0.00125     0.00133     0.00189     0.00180
 1034.0      311.43      176.60      277.07      270.93      0.00185     0.00112     0.00137     0.00148
 1035.0      341.49      192.22      303.05      289.84      0.00213     0.00128     0.00199     0.00146
 1038.0      363.91      204.97      324.09      301.48      0.00142     0.00144     0.00146     0.00177
 1042.0      370.56      208.18      333.33      305.67      0.00092     0.00074     0.00082     0.00064
 1044.0      397.67      216.69      358.71      333.55      0.00253     0.00258     0.00264     0.00300
 1045.0      430.68      245.85      392.74      372.91      0.00127     0.00115     0.00138     0.00169
 1046.0      432.77      248.98      397.69      375.79      0.00158     0.00162     0.00189     0.00119
 1047.0      444.75      263.18      409.85      393.46      0.00122     0.00150     0.00129     0.00194
 1049.0      453.12      267.56      420.01      398.30      0.00195     0.00150     0.00196     0.00163
 1058.0     1207.60      963.03     1150.50     1049.89      0.01366     0.01169     0.01447     0.01532
 1059.0     1263.45      963.03     1160.02     1105.38      0.00705     0.00000     0.00701     0.00634
 1089.0     2472.63     1939.56     2407.92     2074.20      0.02319     0.01827     0.02293     0.01798
 1090.0     2906.05     2239.98     2837.24     2375.22      0.02243     0.01689     0.02208     0.01611
 1101.0     4098.17     3272.85     4052.41     3410.38      0.03389     0.03324     0.03585     0.03309
 1104.0     8525.79     6827.69     8620.02     6845.93      0.06775     0.05927     0.07073     0.06051
 1107.0     9883.71     7877.49    10095.96     8165.99      0.05784     0.05082     0.05885     0.05593
 1109.0     9929.08     7982.46    10117.09     8224.39      0.01835     0.05598     0.00847     0.05433
 1112.0    10216.87     8232.70    10389.55     8374.96      0.08563     0.06407     0.08485     0.06100
 1117.0    11246.47     9142.19    11378.29     9429.90      0.04763     0.04393     0.04649     0.04642
 1118.0    12368.72    10029.96    12393.24    10393.13      0.06287     0.05247     0.05273     0.05227
 1119.0    12902.82    10705.46    13242.41    11018.57      0.07591     0.06589     0.07622     0.06394
 1121.0    14113.29    11702.74    14584.81    12182.69      0.16525     0.14349     0.17175     0.15252
 1122.0    18430.12    15304.50    18984.52    15916.31      0.23682     0.20924     0.22146     0.21144
 1134.0    19830.42    16429.03    20509.12    16670.78      0.11839     0.09502     0.14752     0.06778
 1179.0    20818.78    17716.95    21520.43    17940.12      0.19048     0.24892     0.16568     0.27445
 1182.0    37023.17    28018.28    37284.73    31803.13      0.55812     0.28756     0.56347     0.46990
 1185.0    44704.49    32282.26    43447.72    39464.31      0.82838     0.33738     0.79003     0.73232
 1186.0    46081.80    32704.62    44932.45    40981.17      0.18178     0.13223     0.19592     0.21834
 1188.0    54719.15    37857.08    53872.50    48899.19      0.48839     0.27059     0.50434     0.42548
 1190.0    56114.57    37857.50    55227.69    49243.95      0.67039     0.00022     0.70401     0.17915
 1192.0    57995.83    37871.63    57369.38    51133.32      1.12502     0.02322     1.17786     1.06228
 1196.0    59477.27    37875.72    59147.06    52743.64      0.65487     0.00196     0.69175     0.61232
 1197.0    77230.12    38601.00    77596.94    71050.25      0.57629     0.02917     0.58497     0.63630
 1198.0    94833.08    39949.98    96311.15    92496.16      0.50892     0.04265     0.64409     0.62186
 1199.0   100773.75    40481.23   102559.75    97867.77      0.45958     0.04454     0.47259     0.42781
 1207.0   108172.27    41229.61   110586.07   106597.66      0.58622     0.08654     0.63406     0.47649
 1222.0   133199.09    42275.89   136406.83   130633.95      0.88001     0.05093     0.90166     0.83935
 1224.0   162809.33    44502.39   167905.66   161016.59      1.43808     0.07850     1.49018     1.32227
 1225.0   222772.05    49345.17   227373.91   211802.56      1.36406     0.17384     1.34926     1.14888
 1226.0   252253.30    52739.70   256947.64   241726.03      1.19456     0.12371     1.22692     1.14671
 1229.0   268342.59    53716.57   273302.63   256483.88      1.22854     0.09785     1.25342     1.12322
 1232.0   289192.03    54444.83   281942.25   276434.09      1.22982     0.06398     0.94855     1.40496
 1233.0   358223.53    58598.95   345078.66   343572.88      1.59040     0.08210     1.61594     1.56828
 1250.0   398234.00    60136.36   387142.19   383489.41      1.30378     0.05270     1.30371     1.20044
 1251.0   458679.63    63757.05   449500.69   440492.84      2.58074     0.17400     2.71023     2.36816
 1253.0   541758.06    68531.52   535708.25   524074.53      2.31230     0.12400     2.42049     2.25702
 1256.0   548075.31    69045.67   542544.06   530630.13      1.93623     0.25223     2.03644     1.97911
 1257.0   648273.38    75656.64   622539.94   628265.31      2.56371     0.18500     2.79687     2.47730
 1258.0   704384.63    78688.34   666981.06   684331.81      2.71143     0.15621     2.68487     2.59337
 1260.0   723490.31    79586.88   686746.00   702163.81      2.76060     0.25044     2.83864     2.56777
 1262.0   845161.44    86925.70   809880.00   820265.56      3.02253     0.14094     3.03104     2.65209
 1263.0   936918.25    93101.74   904881.00   910199.31      2.68939     0.25388     2.81742     2.46885
 1264.0   942192.25    93408.71   910712.00   915350.19      3.09258     0.21689     3.20359     2.90403
 1266.0   967331.63    94325.84   937340.69   938536.94      3.91382     0.14697     4.07996     3.52944
 1267.0  1064154.75   101020.06  1035462.13  1033333.94      3.01534     0.46886     3.10955     2.75092
 1268.0  1088657.50   102343.07  1060771.00  1056931.50      2.98895     0.28821     3.07735     2.81347
 1271.0  1142798.75   104491.72  1119383.63  1056931.50      3.79408     0.16996     3.97225     0.00000
 1283.0  1248309.00   110708.81  1227496.75  1160500.00      3.28871     0.21250     3.38247     3.06822
 1284.0  1289900.00   112485.67  1271257.63  1200474.88      3.80647     0.16093     3.94643     3.63028
 1285.0  1408950.50   119318.66  1395942.13  1313697.25      3.82145     0.45788     3.94684     3.44967
 1287.0  1503888.75   124061.97  1495373.13  1407238.38      3.42169     0.14942     3.61020     3.21939
 1293.0  1596130.25   130497.82  1590563.50  1499725.75      2.97296     0.17119     3.09823     2.88601
 1295.0  1834004.38   136637.45  1836308.25  1733722.00      6.13745     0.14894     6.53625     6.10723
 1298.0  2113317.75   143207.81  2125761.50  2003520.13      8.97835     0.32249     9.41431     8.85894
 1299.0  2200181.50   144896.34  2213135.50  2081779.00      8.33659     0.17388     8.63055     9.81857
 1301.0  2543871.25   150927.31  2570316.00  2395867.50      9.44310     0.16897    10.12840     8.78799
 1303.0  2912234.75   157191.16  2947773.00  2742462.75     10.27680     0.15935    10.71890     9.51293
 1305.0  3028845.00   159204.09  3040953.50  2851561.75     10.15620     0.43159     9.85619     9.27665
 1308.0  3362773.75   166405.94  3383244.25  3177467.25      9.57323     0.19877     9.88728     8.39748
 1309.0  3673821.75   171868.78  3701869.50  3468167.00      9.91743     0.56044    10.24610     8.99991
 1364.0  3842326.00   177381.47  3868889.00  3631777.00      4.63410     0.13912     4.61699     4.33463
 1366.0  4528743.00   180448.45  4555778.00  4270257.00     20.32020     0.32745    20.39350    18.35880
 1369.0  4618672.50   181344.56  4648522.00  4348727.00     19.28330     0.61316    19.14330    17.10540
 1372.0  5812040.00   183557.91  5795352.00  5412409.00     35.24010     0.13288    34.68860    32.02920
 1373.0  6934700.50   186128.64  6891387.00  6465690.50     32.29220     0.06439    31.49700    30.12420
 1375.0  7888544.00   187674.53  7832056.00  7353150.00     35.44940     0.06598    34.89430    33.06920
 1381.0  8392005.00   189251.06  7979303.00  7815132.50     49.65440     0.51945    48.58510    45.14050
 1386.0  8401401.00   189350.55  7990509.50  7842412.50      1.37466     0.01327     1.33882     2.75477
 1387.0  8668216.00   190431.97  8246230.00  8082137.50     40.61100     0.34990    39.68290    37.43140
 1388.0  8993839.00   191550.81  8566886.00  8353959.00     44.01840     0.15293    42.77410    40.98190
 1389.0 10099632.00   194902.88  9649546.00  9378405.00     51.35200     0.31076    50.13900    47.44370
 1393.0 12350776.00   198254.05 11956206.00 11527974.00     69.22710     0.08222    68.04150    62.52520
 1394.0 12746032.00   198919.14 12354410.00 11902664.00     68.19060     0.11796    67.29760    63.58890
 1397.0 14116031.00   200395.17 13446954.00 13181755.00     70.27330     0.09118    62.78770    65.21140
 1400.0 15848999.00   203128.09 15162958.00 14793417.00     87.37980     0.20290    86.29300    91.08550
 1408.0 18313264.00   216987.98 17597142.00 17082016.00     93.54140     0.44487    92.50530    87.12190
 1418.0 20568092.00   250537.56 18927188.00 19179450.00    101.93900     1.35136   101.10300    93.34410
 1422.0 20576406.00   252020.13 18929656.00 19197498.00      0.48782     0.09945     0.44727     2.39956
 1424.0 20980916.00   255487.67 19336242.00 19574130.00    134.61700     1.30305   132.22600   124.36200
 1427.0 23235588.00   298624.59 21644090.00 21782872.00     85.54360     1.34104    83.33620    78.92850
 1430.0 23546586.00   301335.72 21889862.00 22073344.00    148.19299     1.26645   143.69901   134.27100
 1439.0 27787274.00   344216.28 26207032.00 25558760.00    150.32300     1.34308   148.56799   122.33400
 1440.0 33749340.00   387762.56 32114754.00 30407196.00    205.27800     1.40427   203.67101   165.76199
 1443.0 35201816.00   397011.19 33573424.00 31596944.00    199.09500     1.33256   198.53799   161.15100
 1444.0 39189688.00   415941.44 37518216.00 34749104.00    194.61600     1.29808   191.74001   154.45900
 1450.0 45479388.00   479446.69 43703648.00 39946128.00    178.88699     1.76198   175.71100   143.64700
 1453.0 48094512.00   501843.81 46224376.00 42036528.00    161.99100     1.40776   158.79900   128.68800
 1455.0 48096320.00   501982.00 46226028.00 42036876.00      0.53964     0.06522     0.48533     0.10501
 1459.0 48547232.00   514433.00 46680316.00 42389092.00     26.23220     0.69242    25.62970    20.39750
